자연언어처리 4주차_텍스트 마이닝을 사용한 자연언어처리 #2: 텍스트 전처리 및 감성분석
…
token: 토큰화의 유형. "words"를 택하면
단어(띄어쓰기) 단위로 토큰화됨.

A. 단일 단어

단어 단위로 토큰화하기: token 논항으로
"words" 입력.

library(tidytext)

# 단어 단위로 토큰화하기.
text_tb %>%
  unnest_tokens(output = word, input = text, token = "words")

## # A tibble: 46 × 2
##     line word      
##    <int> <chr>     
##  1     1 nc        
##  2     1 의        
##  3     1 눈에서는  
##  4     1 여태까지  
##  5     1 보지      
##  6     1 못하던    
##  7     1 눈물이    
##  8     1 흘렀습니다
##  9     2 nc        
## 10     2 의        
## # ℹ 36 more rows

B. n-그램

n-그램 단위로 토큰화하기: token 논항으로
"ngrams" 입력.

# 바이그램 단위로 토큰화하기.
text_tb %>%
  unnest_tokens(output = word, input = text, token = "ngrams", n = 2)

## # A tibble: 41 × 2
##     line word             
##    <int> <chr>            
##  1     1 nc 의            
##  2     1 의 눈에서는      
##  3     1 눈에서는 여태까지
##  4     1 여태까지 보지    
##  5     1 보지 못하던      
##  6     1 못하던 눈물이    
##  7     1 눈물이 흘렀습니다
##  8     2 nc 의            
##  9     2 의 가슴은        
## 10     2 가슴은 에이고    
## # ℹ 31 more rows

C. 단일 글자/음절

단일 글자/음절 단위로 토큰화하기

token 논항으로 "characters" 입력.

영어는 글자 단위, 한국어는 음절 단위로 토큰화됨.

# 단일 글자/음절 단위로 토큰화한 뒤 토큰의 빈도 분석하기.
text_tb %>%
  unnest_tokens(output = word, input = text, token = "characters") %>% 
  count(word, sort = T)

## # A tibble: 65 × 2
##    word      n
##    <chr> <int>
##  1 이        9
##  2 가        6
##  3 는        6
##  4 고        5
##  5 눈        5
##  6 다        5
##  7 물        4
##  8 에        4
##  9 을        4
## 10 있        4
## # ℹ 55 more rows
D. 여러 글자/음절

여러 글자/음절 단위로 토큰화하기

token 논항으로 "character_shingles"
입력.

영어는 글자 단위, 한국어는 음절 단위로 토큰화됨.

# 두 글자/음절 단위로 토큰화한 뒤 토큰의 빈도 분석하기.
text_tb %>%
  unnest_tokens(output = word, input = text, token = "character_shingles", n = 2) %>% 
  count(word, sort = T)

## # A tibble: 102 × 2
##    word      n
##    <chr> <int>
##  1 눈물      4
##  2 가있      3
##  3 니다      3
##  4 습니      3
##  5 c의       2
##  6 nc        2
##  7 가이      2
##  8 누가      2
##  9 는이      2
## 10 물이      2
## # ℹ 92 more rows
…
# "+" 단위로 토큰화하기.
text_tb %>%
  mutate(text = str_replace_all(text, " ", "+")) %>%
  unnest_tokens(output = word, input = text, token = "regex", pattern = "\\+") 

## # A tibble: 44 × 2
##     line word       
##    <int> <chr>      
##  1     1 nc의       
##  2     1 눈에서는   
##  3     1 여태까지   
##  4     1 보지       
##  5     1 못하던     
##  6     1 눈물이     
##  7     1 흘렀습니다.
##  8     2 nc의       
##  9     2 가슴은     
## 10     2 에이고     
## # ℹ 34 more rows
3) 논항 2: to_lower

영문 알파벳 대문자의 소문자화 여부를 결정하는 논항

기본값: to_lower = TRUE.

FALSE로 지정 시 대문자를 소문자로 변경하지 않음.
인명이나 지명 같은 고유명사 구분 필요 시 FALSE로 지정할
것.

# 영문 알파벳 대문자를 소문자로 변경하지 않기.
text_tb %>%
  unnest_tokens(output = word, input = text, token = "words", to_lower = FALSE) 

## # A tibble: 46 × 2
##     line word      
##    <int> <chr>     
##  1     1 NC        
##  2     1 의        
##  3     1 눈에서는  
##  4     1 여태까지  
##  5     1 보지      
##  6     1 못하던    
##  7     1 눈물이    
##  8     1 흘렀습니다
##  9     2 NC        
## 10     2 의        
## # ℹ 36 more rows

4) 논항 3: strip_punct

문장부호 제거 여부 결정: TRUE 설정 시 문장부호
제거.

# 문장부호 제거한 경우.
text_tb %>%
  unnest_tokens(output = word, input = text, token = "words", strip_punct = TRUE)

## # A tibble: 46 × 2
##     line word      
##    <int> <chr>     
##  1     1 nc        
##  2     1 의        
##  3     1 눈에서는  
##  4     1 여태까지  
##  5     1 보지      
##  6     1 못하던    
##  7     1 눈물이    
##  8     1 흘렀습니다
##  9     2 nc        
## 10     2 의        
## # ℹ 36 more rows

# 문장부호 제거하지 않은 경우.
text_tb %>%
  unnest_tokens(output = word, input = text, token = "words", strip_punct = FALSE)

## # A tibble: 51 × 2
##     line word      
##    <int> <chr>     
##  1     1 nc        
##  2     1 의        
##  3     1 눈에서는  
##  4     1 여태까지  
##  5     1 보지      
##  6     1 못하던    
##  7     1 눈물이    
##  8     1 흘렀습니다
##  9     1 .         
## 10     2 nc        
## # ℹ 41 more rows
…
논항은 pos와 동일.

library(RcppMeCab)
load("sjml_result.rda")

# 메타데이터 정보를 유지하면서 텍스트 정규화하기.
sjml.result.tagged.rcpp <- sjml_result[1:10, ] %>% # 메타데이터 정보가 포함된 XML 텍스트 티블.
  mutate(text = enc2utf8(text)) %>% # R 내장함수인 enc2utf8을 통해 text 열의 텍스트를 UTF-8 형식으로 인코딩하기(그래야 한글이 깨지지 않음!). 
  unnest_tokens(morp, text, token = RcppMeCab::pos, to_lower = F) %>% # RcppMeCab 패키지의 pos 함수를 사용하여 토큰화. 이때 형태소 태깅이 대문자를 유지하도록 함.
  filter(!str_detect(morp, "J[A-Z]{1,3}|E[A-Z]{1,3}|S[A-Z]{1,3}")) %>%  # 조사([EX] JKS, JSO), 어미([EX] EF, EP), 기호([EX] SF, SP) 제외.
  separate(morp, sep = "/", into = c("morp_untagged", "pos")) # 형태소와 품사 태그를  "/"를 기준으로 분리하여 두 개의 칼럼 생성.
sjml.result.tagged.rcpp

## # A tibble: 2,873 × 9
##    title         category        author_age author_occupation author_sex
##    <chr>         <chr>                <dbl> <chr>             <chr>     
##  1 아내의 생일상 비출판물 > 수필         45 직장인/전문직     M         
##  2 아내의 생일상 비출판물 > 수필         45 직장인/전문직     M         
##  3 아내의 생일상 비출판물 > 수필         45 직장인/전문직     M         
##  4 아내의 생일상 비출판물 > 수필         45 직장인/전문직     M         
##  5 아내의 생일상 비출판물 > 수필         45 직장인/전문직     M         
##  6 아내의 생일상 비출판물 > 수필         45 직장인/전문직     M         
##  7 아내의 생일상 비출판물 > 수필         45 직장인/전문직     M         
##  8 아내의 생일상 비출판물 > 수필         45 직장인/전문직     M         
##  9 아내의 생일상 비출판물 > 수필         45 직장인/전문직     M         
## 10 아내의 생일상 비출판물 > 수필         45 직장인/전문직     M         
##    author_submission author_handwriting morp_untagged pos  
##    <chr>             <chr>              <chr>         <chr>
##  1 온라인            No                 어제          NNG  
##  2 온라인            No                 아내          NNG  
##  3 온라인            No                 생일          NNG  
##  4 온라인            No                 이            VCP  
##  5 온라인            No                 생일          NNG  
##  6 온라인            No                 맞이          XR   
##  7 온라인            No                 아침          NNG  
##  8 온라인            No                 준비          NNG  
##  9 온라인            No                 오전          NNG  
## 10 온라인            No                 시            NNBC 
## # ℹ 2,863 more rows
…
use_condaenv("r-reticulate") # 새 세션마다 설정.

kiwi <- import("kiwipiepy")$Kiwi()

# 불용어 목록 정의 ("형태소/품사태그" 형식)
# 형태소/품사태그([EX] "하/XSA") 형태로 불용어를 정의하여 정확도 높임.
stop_words_pos <- c("이/VCP", "것/NNB", "곳/NNG", "곳/NNB", "하/VX", "하/VV", "수/NNB", "되/VV", "하/XSA", "들/XSN", "되/XSA", "되/XSV", "하/XSV", "이/VCP", "이/VV", "적/XSN") # 영화 리뷰이므로 "영화"라는 명사를 불용어 목록에 포함시킬 수도 있음.

# 대용량 말뭉치
movie_ratings_train_1000

## # A tibble: 1,000 × 3
##          id
##       <int>
##  1  9234563
##  2  9104198
##  3  2399392
##  4  6624535
##  5 10270535
##  6  8411543
##  7  8962204
##  8  9843324
##  9  3252302
## 10  6618330
##    document                                                                     
##    <chr>                                                                        
##  1 .. 혹시 볼생각이면 보지마세요.. ㅣ시간 아까 워요,..영상도 별로고 내용은 엉성하다 못해 짜증이 나네요. 일본영화 나름 봐왔지만 정말…
##  2 딱 이 영화의 수준을 말해주는 단어 '빌 잭슨'                                  
##  3 오구리슌때문에 별을 준다                                                     
##  4 구혜선팬들아 냉정해지자 이게 영화로제작될만큼의 영화인지 ㅋㅋㅋ              
##  5 정말 소름끼치는 작품이다!!                                                   
##  6 소재도, 스토리도 정말좋았는데 연출과 배우들의 연기가 2%모자란? 하여간 이런 느낌의 영화 정말 좋은것같다. 어쿠스틱한 노래같은 영화.……
##  7 역시 제임스 맥어보이.                                                        
##  8 이런영화좋아하시는 분들껜 죄송하지만 제가좋아하는 영화장르타입이 아니라서 솔직히 이영화는 극장. 멀티방 DVD방에서는 돈주고보기엔 시간과 …
##  9 이거이 완전 막장이네                                                         
## 10 천재적이다 스마트폰으로 촬영해서 더좋았다화질,음악 모든게 다 영화의 분위기와 내용에 잘맞았다10점을 줘도 아깝지않다……
##    label
##    <int>
##  1     0
##  2     0
##  3     0
##  4     0
##  5     1
##  6     1
##  7     1
##  8     0
##  9     0
## 10     1
## # ℹ 990 more rows
…
사용자 정의: 분석의 목적에 따라 사용자가 직접 정의하는 경우.
감탄사/접속부사([EX] 와, 흠, 글쎄, 그런데, 하지만)는 범용 불용어 목록에
흔히 포함되곤 하지만, 필요([EX] 영화나 상품 리뷰)에 따라 분석의 대상이
될 수도 있음.

1) 영어

tidytext 내장 불용어 목록:
data(stop_words)를 불러와 사용 가능.

# 영어 불용어 목록 불러오기.
data(stop_words)
stop_words

## # A tibble: 1,149 × 2
##    word        lexicon
##    <chr>       <chr>  
##  1 a           SMART  
##  2 a's         SMART  
##  3 able        SMART  
##  4 about       SMART  
##  5 above       SMART  
##  6 according   SMART  
##  7 accordingly SMART  
##  8 across      SMART  
##  9 actually    SMART  
## 10 after       SMART  
## # ℹ 1,139 more rows
…
# 지난 시간에 만들어둔 300개 XML 텍스트 티블 불러오기.
load("sjml_result.rda")

불용어 목록 제외 전 vs. 후 단어 빈도 비교하기.

# 불용어 목록 제외 전 단어 빈도 분석하기.
sjml_result %>%
  mutate(text = enc2utf8(text)) %>%
  unnest_tokens(morp, text, token = RcppMeCab::pos, to_lower = F) %>%
  filter(!str_detect(morp, "J[A-Z]{1,3}|E[A-Z]{1,3}|S[A-Z]{1,3}")) %>%
  count(morp, sort = TRUE) # morp(품사 태깅된 형태소)의 빈도 분석(SORT = TRUE: 내림차순으로 배열).

## # A tibble: 4,923 × 2
##    morp         n
##    <chr>    <int>
##  1 이/VCP     601
##  2 것/NNB     509
##  3 하/VV      500
##  4 나/NP      343
##  5 않/VX      304
##  6 있/VV      293
##  7 생각/NNG   279
##  8 수/NNB     278
##  9 되/VV      254
## 10 없/VA      238
## # ℹ 4,913 more rows

# 불용어 목록 제외 후 단어 빈도 분석하기
sjml_result %>%
  mutate(text = enc2utf8(text)) %>%
  unnest_tokens(morp, text, token = RcppMeCab::pos, to_lower = F) %>%
  filter(!str_detect(morp, "J[A-Z]{1,3}|E[A-Z]{1,3}|S[A-Z]{1,3}")) %>%
  anti_join(gil_noh_stopwords_final[, 5], by = c("morp" = "stop_words_tagged")) %>% # anti_join 함수를 통해 불용어 목록에 포함된 형태소(품사 태깅된 형태소)만 제거하기.
  count(morp, sort = TRUE) 

## # A tibble: 4,707 × 2
##    morp         n
##    <chr>    <int>
##  1 하/VV      500
##  2 있/VV      293
##  3 생각/NNG   279
##  4 되/VV      254
##  5 없/VA      238
##  6 있/VX      233
##  7 사람/NNG   204
##  8 일/NNG     184
##  9 같/VA      182
## 10 아이/NNG   161
## # ℹ 4,697 more rows
…
# 빈도는 높지만 정보 값은 적은 형태소를 새로운 불용어 목록에 추가하기.
stop_words_added <- c("이/VCP", "것/NNB", "곳/NNG", "곳/NNB", "하/VX", "하/VV", "수/NNB", "되/VV", "하/XSA", "들/XSN", "되/XSA", "되/XSV", "하/XSV", "이/VCP", "이/VV", "적/XSN")

# anti_join과 filter 함수를 함께 사용하여 새로운 불용어 추가로 제거하기.
sjml_result %>%
  mutate(text = enc2utf8(text)) %>%
  unnest_tokens(morp, text, token = RcppMeCab::pos, to_lower = F) %>%
  filter(!str_detect(morp, "J[A-Z]{1,3}|E[A-Z]{1,3}|S[A-Z]{1,3}")) %>%
  anti_join(gil_noh_stopwords_final[, 5], by = c("morp" = "stop_words_tagged")) %>%
  filter(!morp %in% stop_words_added) %>% # morp 칼럼에 있는 새로운 불용어 찾아낸 뒤 filter 함수에 !를 더하여 제거하기.
  count(morp, sort = TRUE)  

## # A tibble: 4,701 × 2
##    morp         n
##    <chr>    <int>
##  1 있/VV      293
##  2 생각/NNG   279
##  3 없/VA      238
##  4 있/VX      233
##  5 사람/NNG   204
##  6 일/NNG     184
##  7 같/VA      182
##  8 아이/NNG   161
##  9 좋/VA      150
## 10 시간/NNG   135
## # ℹ 4,691 more rows
…
# 단계 5: 감성점수 계산하기
sentiment_score <- pmi_scores %>%
  select(word, label, pmi) %>% # 주요 칼럼 취사선택하기.
  pivot_wider(names_from = label, values_from = pmi, values_fill = 0) %>% # label 칼럼을 그 값(0, 1)에 따라 옆으로 펼치고자 함. 이때 "0"이라는 제목의 칼럼과 "1"이라는 제목의 칼럼이 생성되고, 행으로는 pmi 값이 들어감. 결측값은 0으로 채움.
  mutate(score = `1` - `0`) %>% # 긍정 극성과 특정 단어 간의 PMI - 부정 극성과 특정 단어 간의 PMI
  arrange(desc(score)) %>% # 감성점수 기준으로 내림차순 정렬하기.
  rename(negative = `0`, positive = `1`) %>% # 칼럼 이름 바꿔주기.
  mutate(senti_label = case_when(score > 0 ~  "긍정", # 감성점수가 0 이상이면 "긍정"으로 라벨링.
                                 T ~ "부정")) # 감성점수가 0 이하이면 "부정"으로 라벨링.
save(sentiment_score, file="sentiment_score.rda")
sentiment_score

## # A tibble: 2,933 × 5
##    word   negative positive score senti_label
##    <chr>     <dbl>    <dbl> <dbl> <chr>      
##  1 최고      -2.80    0.889  3.69 긍정       
##  2 아쉽      -2.58    0.870  3.45 긍정       
##  3 아름답    -2.46    0.858  3.31 긍정       
##  4 3         -2.32    0.844  3.16 긍정       
##  5 그리고    -2.32    0.844  3.16 긍정       
##  6 여운      -2.32    0.844  3.16 긍정       
##  7 추천      -2.32    0.844  3.16 긍정       
##  8 가슴      -2.17    0.826  2.99 긍정       
##  9 재미있    -2.05    0.811  2.87 긍정       
## 10 사랑      -1.95    0.796  2.75 긍정       
## # ℹ 2,923 more rows

# 단계 6: 감성점수 상위/하위 단어 추출하기.
top_words <- sentiment_score %>%
  filter(score != 0) %>%
  slice_max(abs(score), n = 20) %>% # 감성점수 절대값 상위 20개만 잘라내기.
  mutate(direction = case_when(score > 0 ~  "positive", # 극성의 방향 정의하기: 감성점수 0 이상이면 "positive"로 라벨링.
                               T ~ "negative")) # # 극성의 방향 정의하기: 감성점수 0 이하면 "negative"로 라벨링.
top_words

## # A tibble: 23 × 6
##    word   negative positive score senti_label direction
##    <chr>     <dbl>    <dbl> <dbl> <chr>       <chr>    
##  1 쓰레기    0.952   -3.81  -4.76 부정        negative 
##  2 재미없    0.934   -3.40  -4.33 부정        negative 
##  3 별로      0.911   -3.00  -3.92 부정        negative 
##  4 최고     -2.80     0.889  3.69 긍정        positive 
##  5 개        0.879   -2.59  -3.47 부정        negative 
##  6 아쉽     -2.58     0.870  3.45 긍정        positive 
##  7 아름답   -2.46     0.858  3.31 긍정        positive 
##  8 3        -2.32     0.844  3.16 긍정        positive 
##  9 그리고   -2.32     0.844  3.16 긍정        positive 
## 10 여운     -2.32     0.844  3.16 긍정        positive 
## # ℹ 13 more rows
…
