자연언어처리 2주차_텍스트 마이닝을 사용한 자연언어처리 #1: 온라인 데이터 수집
…
# 2021년 미국내 총기 살인사건 통계 웹 페이지의 세 번째 표 추출하기.
html.1.tab.1 <- html.1.tab[[3]] %>% 
  html_table()
html.1.tab.1

## # A tibble: 52 × 6
##    State          `Gun deaths` Suicide Homicide Accident   Law
##    <chr>          <chr>        <chr>   <chr>       <int> <int>
##  1 United States  48,830       26,328  20,958        549   537
##  2 Texas          4,613        2,528   1,942          53    38
##  3 California     3,576        1,575   1,861          32    89
##  4 Florida        3,142        1,928   1,150          18    25
##  5 Georgia        2,200        1,115   1,021          25    22
##  6 Illinois       1,995        656     1,292          15    18
##  7 Ohio           1,911        991     872            21    12
##  8 Pennsylvania   1,905        997     861            25    13
##  9 North Carolina 1,839        916     850            46    15
## 10 Tennessee      1,569        814     714            11    NA
## # ℹ 42 more rows

## 예시 2: 레고무비 사운드트랙
url.2 <- "https://en.wikipedia.org/wiki/The_Lego_Movie_(soundtrack)"
html.2 <- read_html(url.2)
html.2 %>% 
  html_element(".tracklist") %>% 
  html_table() %>%
  setNames(c("No", "Title", "Performers", "Length")) %>% # 데이터 프레임의 열 제목 설정하기.
  mutate(Title = str_replace_all(Title, '\\"', "")) # Title 열의 따옴표 표시(\") 없애기.

## # A tibble: 29 × 4
##    No    Title                            Performers                      Length
##    <chr> <chr>                            <chr>                           <chr> 
##  1 1.    Everything Is Awesome (Original) "Tegan and Sara ft. The Lonely… 2:43  
##  2 2.    Prologue                         ""                              2:28  
##  3 3.    Emmet's Morning                  ""                              2:00  
##  4 4.    Emmet Falls in Love              ""                              1:11  
##  5 5.    Escape                           ""                              3:27  
##  6 6.    Into the Old West                ""                              1:00  
##  7 7.    Wyldstyle Explains               ""                              1:21  
##  8 8.    Emmet's Mind                     ""                              2:17  
##  9 9.    The Transformation               ""                              1:46  
## 10 10.   Saloons and Wagons               ""                              3:38  
## # ℹ 19 more rows
…
## 연습 1: 단일 json 파일 데이터 프레임으로 불러들이기. 

data_go_kr <- fromJSON("json_week2/response_1757071128310.json", simplifyDataFrame =T)  
attributes(data_go_kr) # 데이터의 구조 살펴보기.

## $names
## [1] "currentCount" "data"         "matchCount"   "page"         "perPage"     
## [6] "totalCount"

data_go_kr$data %>% # 티블로 변환하기.
  as_tibble()

## # A tibble: 266 × 7
##    시도  연락처       연락처2 연락처3 연락처4 운영기관명     주소               
##    <chr> <chr>        <chr>   <chr>   <chr>   <chr>          <chr>              
##  1 서울  02-3412-2222 <NA>    <NA>    <NA>    강남구가족센터 서울시 강남구 개포로 617-8……
##  2 서울  02-471-0812  <NA>    <NA>    <NA>    강동구가족센터 서울시 강동구 양재대로 1634,…
##  3 서울  02-987-2567  <NA>    <NA>    <NA>    강북구가족센터 서울시 강북구 한천로 129길 6…
##  4 서울  02-2606-2017 <NA>    <NA>    <NA>    강서구가족센터 서울시 강서구 강서로 5길 50,…
##  5 서울  02-883-9383  <NA>    <NA>    <NA>    관악구가족센터 서울시 관악구 신림로 3길 35 …
##  6 서울  02-458-0622  <NA>    <NA>    <NA>    광진구가족센터 서울시 광진구 능동로 30길 23…
##  7 서울  02-458-0666  <NA>    <NA>    <NA>    광진구가족센터 서울시 광진구 아차산로 24길 1…
##  8 서울  02-458-0623  <NA>    <NA>    <NA>    광진구가족센터 서울시 광진구 자양로 15길 60…
##  9 서울  02-869-0317  <NA>    <NA>    <NA>    구로구가족센터 서울시 구로구 우마2길 35, 구…
## 10 서울  02-803-7747  <NA>    <NA>    <NA>    금천구가족센터 서울시 금천구 금하로 11길 40…
## # ℹ 256 more rows
…
# 5개 메신저 텍스트와 그에 해당하는 speaker 메타데이터를 매칭하기.
json_join <- list()
for(i in seq_along(json.list.2)){
  json_join[[i]] <- json_metadata[[i]] %>%
    left_join(json_text[[i]], join_by(id == speaker_id))
}

# 리스트 형식으로 추출된 결과물을 티블 형식으로 변환하기.
json_text.1 <- map_dfr(json_join, as_tibble) %>%
  rename(text = form) # form이라는 칼럼 제목을 text로 바꾸기.
json_text.1

## # A tibble: 1,565 × 13
##    id    age   occupation sex   birthplace pricipal_residence current_residence
##    <chr> <chr> <chr>      <chr> <chr>      <chr>              <chr>            
##  1 1     20대  군인       남성  경기       경기               경기             
##  2 1     20대  군인       남성  경기       경기               경기             
##  3 1     20대  군인       남성  경기       경기               경기             
##  4 1     20대  군인       남성  경기       경기               경기             
##  5 1     20대  군인       남성  경기       경기               경기             
##  6 1     20대  군인       남성  경기       경기               경기             
##  7 1     20대  군인       남성  경기       경기               경기             
##  8 1     20대  군인       남성  경기       경기               경기             
##  9 1     20대  군인       남성  경기       경기               경기             
## 10 1     20대  군인       남성  경기       경기               경기             
## # ℹ 1,555 more rows
## # ℹ 6 more variables: device <chr>, keyboard <chr>, id.y <chr>, text <chr>,
## #   original_form <chr>, time <chr>
…
# 10페이지만 "\n"(행갈이) 단위로 텍스트 분리한 뒤 티블 형식으로 변환하기.
test %>%
  str_split("\n") %>% # 행갈이 단위로 텍스트 분리하기.
  unlist() %>% # 리스트 형식의 객체를 벡터로 변환하기.
  as_tibble() %>% # 위의 객체를 다시 티블로 변환하기.
  rename(text = value) %>% # 자동으로 부여되는 칼럼 이름인 value를 text로 바꾸기.
  filter(text != "") # 텍스트 칼럼에 아무것도 없는 행은 제거하기.

## # A tibble: 41 × 1
##    text                                                                         
##    <chr>                                                                        
##  1 "Applied Psycholinguistics 39:2                                             …
##  2 "Fellman et al.: A new measure of verbal working memory"                     
##  3 "                  Table 3. Intercorrelations for all variables"             
##  4 "                  in Experiment 1"                                          
##  5 "                  Measure            SUS            RSpan           OSpan"  
##  6 "                  SUS                 —"                                    
##  7 "                  RSpan              .349             —"                    
##  8 "                  OSpan              .253            .372              —"   
##  9 "                  SymSpan            .241            .376             .506" 
## 10 "                  Note: All correlations were statistically significant (p …
## # ℹ 31 more rows

# 모든 페이지를 "\n"(행갈이) 단위로 텍스트 분리한 뒤 티블 형식으로 변환하기.
txt %>%
  unlist()%>%
  str_split("\n") %>%
  unlist() %>%
  as_tibble() %>%
  rename(text = value) %>%
  filter(text != "")

## # A tibble: 1,149 × 1
##    text                                                                         
##    <chr>                                                                        
##  1 Applied Psycholinguistics 39 (2018), 275–301                                 
##  2 doi:10.1017/S0142716417000182                                                
##  3 Selective updating of sentences:                                             
##  4 Introducing a new measure of verbal                                          
##  5 working memory                                                               
##  6 DANIEL FELLMAN, ANNA SOVERI, CHARLOTTE VIKTORSSON,                           
##  7 SARAH HAGA, JOHANNES NYLUND, SANNA JOHANSSON,                                
##  8 JAKOB EDMAN, FELIX VON RENTELN, and MATTI LAINE                              
##  9 Abo Akademi University                                                       
## 10 Received: October 11, 2016             Accepted for publication: April 25, 2…
## # ℹ 1,139 more rows
…
# pdf 파일 목록 불러오기.
pdf.list <- list.files(path = "pdf_week2", pattern = "pdf$", recursive = T)
pdf.list.1 <- str_c("pdf_week2/", pdf.list)

# map 함수를 사용하여 목록 내 파일 일괄적으로 읽어들이기.
pdf.list.2 <- map(pdf.list.1, pdf_text) %>%
  unlist()%>%
  str_split("\n") %>%
  unlist() %>%
  as_tibble() %>%
  rename(text = value) %>%
  filter(text != "")
pdf.list.2 

## # A tibble: 4,465 × 1
##    text                                                                         
##    <chr>                                                                        
##  1 "   1                                                             Heritage L…
##  2 "                                                                           …
##  3 "         Psycholinguistic Approaches to Language Processing in Heritage Spe…
##  4 "                             Patrick A. Bolger and Gabriela C. Zapata"      
##  5 "                                       University of Alberta"               
##  6 "Abstract"                                                                   
##  7 "This paper focuses on the dearth of language-processing research addressing…
##  8 "speakers in assimilationist communities. First, we review key offline work …
##  9 "and we then summarize the few psycholinguistic (online) studies that have a…
## 10 "out. In an attempt to encourage more such research, in the next section, we…
## # ℹ 4,455 more rows
…
# 모든 링크(<a> 태그)를 찾아서 href 속성만 추출하기.
links <- webpage.sf %>%
  html_nodes("a") %>%
  html_attr("href")

# 추출된 링크들 중에서 ".epub"으로 끝나는 링크만 필터링하기.
epub_links <- as_tibble(links) %>%
  rename(link = value) %>%
  filter(str_detect(links, "\\.epub$")) %>% # 확장자가 epub인 파일들의 링크만 필터링하기.
  mutate(link = str_c("http://jikji.duckdns.org", link)) # 다운로드가 가능한 온전한 링크 주소 칼럼 생성하기.

# 최종결과 확인하기.
epub_links

## # A tibble: 64 × 1
##    link                                               
##    <chr>                                              
##  1 http://jikji.duckdns.org/download/117/epub/117.epub
##  2 http://jikji.duckdns.org/download/116/epub/116.epub
##  3 http://jikji.duckdns.org/download/112/epub/112.epub
##  4 http://jikji.duckdns.org/download/109/epub/109.epub
##  5 http://jikji.duckdns.org/download/78/epub/78.epub  
##  6 http://jikji.duckdns.org/download/64/epub/64.epub  
##  7 http://jikji.duckdns.org/download/61/epub/61.epub  
##  8 http://jikji.duckdns.org/download/60/epub/60.epub  
##  9 http://jikji.duckdns.org/download/59/epub/59.epub  
## 10 http://jikji.duckdns.org/download/57/epub/57.epub  
## # ℹ 54 more rows
…
# tidyverse의 walk2 함수를 통해 개별 링크마다 파일명을 작성하여 epub_week2 폴더에 저장하기.
walk2(
  .x = downloads_df$link, 
  .y = downloads_df$file_path, 
  .f = ~ download.file(url = .x, destfile = .y, mode = "wb") # 주의! mode = "wb"(binary 형식)로 지정하지 않으면 파일이 열리지 않음!
  )

# epub 파일들로부터 텍스트 추출하기.
epub.files <- downloads_df$file_path # 파일 경로(파일명)만 추출하기.
epub.df <- map_dfr(epub.files, epub) # 폴더 내 모든 epub 파일을 불러와 epub 함수를 적용하여 1행씩 쌓아나가기.
epub.df$data[[1]] # 메타데이터를 제외한 소설 텍스트는 data 칼럼에 티블 형식으로 저장되어 있음. 일단, 첫 번째 소설만 열어보기.

## # A tibble: 39 × 4
##    section              text                                         nword nchar
##    <chr>                <chr>                                        <int> <int>
##  1 Subcover.xhtml       "에스에프 세계 명작 <한국편>\n\n  한국SF작가협회 편\n\n  4차원의…     3   335
##  2 Section002.xhtml     "격려사\n\n  과학기술처 장관\n\n  \n\n  사람은 딴 동물과는 달리…     4   858
##  3 Section003.xhtml     "책머리에\n\n  한국 SF작가 클럽을 대표하여\n\n  서 광 운\n\n …    10  1297
##  4 TOC.xhtml            "차 례\n\n  \n\n  바닷물이 불어온다\n\n  빙하 시대가 오는가?\…     3   442
##  5 Part01_Sec_001.xhtml "바닷물이 불어온다\n\n  \n\n  물때가 좋거늘, 하마하마 큰 놈이 물 …    15  2733
##  6 Part01_Sec_009.xhtml "둔갑한 4차원 로봇\n\n  \n\n  한 발자국씩 조종석으로 말없이 다가서…    17  2410
##  7 Part02.xhtml         "■ S.F 단편\n\n  \n\n  ※ 우주 여행기\n\n  ※ 미쳐버린 마…     1    49
##  8 Part02_Sec001.xhtml  "미쳐버린 마차\n\n  \n\n  \"이것은 콜레라 균(菌)의 표본입니다. …     1  9606
##  9 Part02_Sec002.xhtml  "의식 교환기\n\n  \n\n  이상한 소리\n\n  \n\n  \"마키타,…     6 14598
## 10 Part02_Sec003.xhtml  "우주 여행\n\n  \n\n  한동수 교수의 타임머신\n\n  \n\n  내…    19  7658
## # ℹ 29 more rows
…
    epub.df$data[[i]] <- new_data_tibble # 수정된 티블을 data 칼럼에 할당하기.
}

new_data_tibble.1 <- map_dfr(epub.df$data, as_tibble) %>% # 리스트 형식인 epub.df$data를 행 단위로 쌓은 티블 형식으로 변환하기.
  filter(str_detect(section, "cov|Cov|toc|TOC") == F) # cover, 목차 관련 정보는 제거하기.
save(new_data_tibble.1, file="new_data_tibble.1.rda") # 나중을 위해 객체 저장하기.
write_csv(new_data_tibble.1, "new_data_tibble.1.csv") # csv 파일 형태로 저장하기.

# 최종결과 확인하기.
new_data_tibble.1

## # A tibble: 1,787 × 7
##    language creator title        section              text           nword nchar
##    <chr>    <chr>   <chr>        <chr>                <chr>          <int> <int>
##  1 ko       서광운  4차원의 전쟁 Section002.xhtml     "격려사\n\n  과학기…     4   858
##  2 ko       서광운  4차원의 전쟁 Section003.xhtml     "책머리에\n\n  한국…    10  1297
##  3 ko       서광운  4차원의 전쟁 Part01_Sec_001.xhtml "바닷물이 불어온다\n\…    15  2733
##  4 ko       서광운  4차원의 전쟁 Part01_Sec_009.xhtml "둔갑한 4차원 로봇\n…    17  2410
##  5 ko       서광운  4차원의 전쟁 Part02.xhtml         "■ S.F 단편\n\n…     1    49
##  6 ko       서광운  4차원의 전쟁 Part02_Sec001.xhtml  "미쳐버린 마차\n\n …     1  9606
##  7 ko       서광운  4차원의 전쟁 Part02_Sec002.xhtml  "의식 교환기\n\n  …     6 14598
##  8 ko       서광운  4차원의 전쟁 Part02_Sec003.xhtml  "우주 여행\n\n  \…    19  7658
##  9 ko       서광운  4차원의 전쟁 Part02_Sec004.xhtml  "작품 해설\n\n  \…    13  1635
## 10 ko       서광운  4차원의 전쟁 Part02_Sec005.xhtml  "4차원의 전쟁\n\n …    16   374
## # ℹ 1,777 more rows
