자연언어처리 8주차_텍스트 마이닝을 사용한 자연언어처리 #3: 토픽 모델링 및 TF-IDF
…
# data 섹션만 추출하여 티블 형식으로 변환하기.
set.seed(123) # 난수 고정하기.
article.2 <- article$data %>%
  as_tibble() %>% # 티블 형식으로 변환하기. 
  unnest() %>% # 리스트를 행으로 모두 펼치기.
  filter(doc_type == "논문", # 문서유형이 논문인 행만 추출하기.
         ipc %in% c("공학", "인문학", "의약학")) %>% # 학문분야가 공학, 인문학, 의약학인 행만 추출하기.
  group_by(ipc) %>% # 세 개의 학문분야별로 그룹화하기.
  slice_sample(n=400) %>% # 학문분야 그룹별로 400개씩 무작위 추출하기. 
  ungroup() %>% # 그룹화 해제하기.
  select(ipc, doc_id, orginal_text) %>% # LDA에 필요한 문서 식별자(doc_id)와 초록 텍스트(orginal_text) 칼럼 + 문서의 주제(ipc)만 남기기.
  rename(actual_label = ipc) # 문서의 주제 ipc를 좀더 직관적인 이름인 actual_label로 수정하기.
article.2

## # A tibble: 1,200 × 3
##    actual_label doc_id       
##    <chr>        <chr>        
##  1 공학         A201008192866
##  2 공학         A201008192914
##  3 공학         A201008192630
##  4 공학         A201008183004
##  5 공학         A201008194895
##  6 공학         A201008193389
##  7 공학         A201008192227
##  8 공학         A201008191392
##  9 공학         A201008193774
## 10 공학         A201008199791
##    orginal_text                                                                 
##    <chr>                                                                        
##  1 본 논문에서는 윤곽선의 순열을 기반으로 하여 형상 시그너쳐를 추출하고, 주도적 특징을 기반으로 형상 정열 및 정규화한 뒤, 기존 절대각도…
##  2 본 논문은 H.264 움직임 예측을 위해 휘도 성분과 색차 성분의 부화소를 생성하는 효율적인 부화소 보간기 회로 설계에 대해 기술한다. …
##  3 국가의 브랜드 파워와 국가 이미지를 강화시킬 수 있는 문화원천으로 판단되는 신한류는 꾸준한 경제적 파급효과를 가져올 것으로 예상됨에 따라…
##  4 본 연구에서는 Navier-Stokes solver에 기초한 3차원혼상류해석법인 TWOPM-3D를 적용하여 고립파와 연안교량과의 상호작용…
##  5 본 논문에서는 변단면 기능경사재료 보에서 중립면 탄성계수가 축방향을 따라 공간적 불확실성을 가질 경우에 대한 구조 응답변화도 산정을 위한…
##  6 유아용 체감형 게임은 유아 놀이 공간 축소로 인한 안전한 유아 놀이 공간 부족에 대한 해결책 중 하나로 대두되고 있다. 이에 따라 본 연…
##  7 고도화된 정보통신 기술에 부합하는 사용자-친화적인 서비스 제공을 위해서 많은 정보가 무분별하게 수집되고 있다. 최근 사용자 정보 관리의 …
##  8 사물 인터넷 서비스를 실현하기 위해서는 확장성을 고려한 센싱 데이터 관리 및 서비스 구축이 필요하다. 그러나 기존 사물 인터넷 서비스들은…
##  9 비소는 음이온적인 거동을 가지고 Eh-pH의 조건에 따라 특성이 변화하여 비소로 오염된 토양을 정화하기 위한 방법이 확립되어있지 못한 실…
## 10 본 논문은 유비쿼터스 컴퓨팅 시대의 등장이 인간의 정보기술 활용욕구의 발전단계에 따라 필연적으로 등장한 새로운 정보기술 패러다임이며, 지…
## # ℹ 1,190 more rows
…
특정 단어가 특정 주제에 할당될 확률: “모든 주제는 단어들이 무작위로
섞인 임의의 혼합물이다.”

matrix = “beta”를 지정해주면 주제, 단어, β 값이
제시됨.

β 값이 높은 단어일수록 그 주제를 대표하는 키워드일 확률이 높음.

library(broom)
# install.packages("reshape2") 해당 패키지 첫 사용자는 reshape2 패키지가 없다는 메시지가 나오므로 미리 설치해둘 것.
abstract_topics <- tidy(article_lda, matrix = "beta")
abstract_topics

## # A tibble: 34,725 × 3
##    topic term         beta
##    <int> <chr>       <dbl>
##  1     1 윤곽선 0.00000199
##  2     2 윤곽선 0.000154  
##  3     3 윤곽선 0.00000206
##  4     1 순열   0.00000199
##  5     2 순열   0.00000217
##  6     3 순열   0.0000226 
##  7     1 기반   0.0000617 
##  8     2 기반   0.00802   
##  9     3 기반   0.00000206
## 10     1 형상   0.000798  
## # ℹ 34,715 more rows
…
시각화: ggplot2 패키지 사용.

의의: 주제 해석의 핵심. 문서별 대표 주제와 연결하면 “이 문서의
주제는 어떤 단어들로 구성되는가?”를 설명할 수 있음. \(\Rightarrow\) “주제란 단순한 숫자가 아니라
단어의 집합이다!”

# 주제별 최빈 단어 10개 확인하기: 티블 버전.
abs_top_terms <- abstract_topics %>%
  group_by(topic) %>% # 주제별로 그룹화하기.
  slice_max(beta, n = 10) %>% # 상위빈도 10개 단어만 추출하기.
  ungroup() %>% # 그룹화 풀기.
  arrange(topic, -beta) # 주제 오름차순, 베타 내림차순으로 배열하기.
abs_top_terms

## # A tibble: 31 × 3
##    topic term     beta
##    <int> <chr>   <dbl>
##  1     1 교육  0.00868
##  2     1 사회  0.00802
##  3     1 의미  0.00715
##  4     1 문제  0.00601
##  5     1 점    0.00572
##  6     1 중심  0.00518
##  7     1 존재  0.00516
##  8     1 관계  0.00510
##  9     1 문학  0.00494
## 10     1 과정  0.00490
## # ℹ 21 more rows
…
상대적으로 빈도가 지나치게 낮은 단어들은 제외: 적어도 한 주제에서
\(β>\frac{1}{1000}\)인 단어만
추출하기.

# 로그비 계산하기.
abstract_beta <- abstract_topics %>%
  mutate(topic = str_c("topic", topic)) %>% # 숫자(1, 2, 3)로 되어 있는 topic 번호 앞에 "topic"을 붙여 topic1, topic2, topic3과 같이 수정함.
  pivot_wider(names_from = topic, values_from = beta) %>% # topic1, topic2, topic3이 별도의 열이 되고 그 행은 β 값이 차지하도록 티블의 구조를 변경함.
  filter(topic1 > .001 | topic2 > .001) %>% # 각 topic의 β 값이 0.001 이상인 행만 추출하기.
  mutate(log_ratio = log2(topic2 / topic1)) # 로그비 계산하기.
abstract_beta

## # A tibble: 370 × 5
##    term      topic1     topic2     topic3 log_ratio
##    <chr>      <dbl>      <dbl>      <dbl>     <dbl>
##  1 기반  0.0000617  0.00802    0.00000206      7.02
##  2 추출  0.00000199 0.00218    0.00000206     10.1 
##  3 특징  0.00241    0.000937   0.000208       -1.36
##  4 기존  0.00000199 0.00644    0.00000206     11.7 
##  5 관계  0.00510    0.00000217 0.00261       -11.2 
##  6 이용  0.00000199 0.0115     0.00144        12.5 
##  7 중심  0.00518    0.00000217 0.00000206    -11.2 
##  8 값    0.00000199 0.00313    0.00000206     10.6 
##  9 제안  0.00000199 0.00911    0.00000206     12.2 
## 10 비교  0.00000199 0.00435    0.00278        11.1 
## # ℹ 360 more rows
…
다. 문서-주제 확률

γ(gamma)

특정 문서가 특정 주제에 할당될 확률: “모든 문서는 주제들이 무작위로
섞인 임의의 혼합물이다.”

matrix = “gamma”를 지정해주면 주제, 문서, γ 값이
제시됨.

library(broom)
abstract_documents <- tidy(article_lda, matrix = "gamma")
abstract_documents

## # A tibble: 3,600 × 3
##    document      topic gamma
##    <chr>         <int> <dbl>
##  1 A201008192866     1 0.245
##  2 A201008192914     1 0.144
##  3 A201008192630     1 0.304
##  4 A201008183004     1 0.162
##  5 A201008194895     1 0.159
##  6 A201008193389     1 0.186
##  7 A201008192227     1 0.188
##  8 A201008191392     1 0.160
##  9 A201008193774     1 0.137
## 10 A201008199791     1 0.403
## # ℹ 3,590 more rows
…
## # A tibble: 3 × 3
##   document      topic gamma
##   <chr>         <int> <dbl>
## 1 A201008192866     1 0.245
## 2 A201008192866     2 0.541
## 3 A201008192866     3 0.213

# DTM 객체 article_dtm_quanteda를 tidy 형식으로 변환하기: 문서의 A201008185934 빈출단어 확인하기.
tidy(article_dtm_quanteda) %>%
  filter(document == "A201008185934") %>%
  arrange(-count)

## # A tibble: 285 × 3
##    document      term     count
##    <chr>         <chr>    <dbl>
##  1 A201008185934 명화        25
##  2 A201008185934 그림        23
##  3 A201008185934 패러디      23
##  4 A201008185934 텍스트      20
##  5 A201008185934 속          14
##  6 A201008185934 그림책      14
##  7 A201008185934 마그리트    12
##  8 A201008185934 세계        11
##  9 A201008185934 화가        11
## 10 A201008185934 윌리        11
## # ℹ 275 more rows
…
.document 칼럼: 문서 식별자.

.count 칼럼: 해당 단어의 빈도.

library(broom)

# quanteda 패키지로 생성한 DTM을 tidy 형식으로 바꾸기.
article_dtm_tidy <- tidy(article_dtm_quanteda) 
# → augment() 함수는 tidy 형식 또는 cast_dtm()으로 생성한 DTM만 입력으로 허용. 

# augment() 함수로 단어별 주제할당 결과 확인하기.
abs.augment <- augment(article_lda, data = article_dtm_tidy)
abs.augment

## # A tibble: 79,471 × 4
##    document      term   count .topic
##    <chr>         <chr>  <dbl>  <dbl>
##  1 A201008192866 윤곽선     1      2
##  2 A201008195828 윤곽선     5      2
##  3 A201008192299 윤곽선     1      2
##  4 A201008192866 순열       1      3
##  5 A201008192866 기반       3      2
##  6 A201008192914 기반       1      2
##  7 A201008192227 기반       3      2
##  8 A201008191392 기반       1      2
##  9 A201008199791 기반       1      2
## 10 A201008198198 기반       1      2
## # ℹ 79,461 more rows

# 각 주제에서 가장 많이 할당된 상위 단어 10개 추출하기.
top_10_per_topic <- abs.augment %>%
  count(.topic, term, sort = TRUE) %>%
  group_by(.topic) %>%
  slice_max(n, n = 10)
# → 각 주제에서 가장 많이 할당된 단어 추출.
# → 각 주제별 핵심단어를 실제 할당 기반으로 확인.
top_10_per_topic

## # A tibble: 30 × 3
## # Groups:   .topic [3]
##    .topic term      n
##     <dbl> <chr> <int>
##  1      1 의미    215
##  2      1 사회    193
##  3      1 문제    188
##  4      1 점      178
##  5      1 목적    175
##  6      1 중심    173
##  7      1 과정    167
##  8      1 관계    149
##  9      1 이해    140
## 10      1 중요    139
## # ℹ 20 more rows
…
의약학: 400개 문서 중 316개(78퍼센트)가 주제 3으로 분류되는 경향을
보임. 주제 2(공학으로 추정)으로 분류된 문서의 비율도 55개(14퍼센트)나
됨. 둘 다 자연과학 분야인 만큼 주제 간 연관성도 어느 정도 있어
보임.

다. 정확도

정의: 실제 레이블과 LDA가 예측한 주제가 일치한 비율.

# 1. 문서별 실제 레이블과 LDA가 예측한 주제 연결하기(이미 완료).
doc_eval

## # A tibble: 1,203 × 5
##    doc_id        actual_label topic  prob pred_topic
##    <chr>         <chr>        <chr> <dbl>      <dbl>
##  1 A201008192866 공학         2     0.541          2
##  2 A201008192914 공학         2     0.698          2
##  3 A201008192630 공학         3     0.473          3
##  4 A201008183004 공학         2     0.655          2
##  5 A201008194895 공학         2     0.662          2
##  6 A201008193389 공학         2     0.606          2
##  7 A201008192227 공학         2     0.658          2
##  8 A201008191392 공학         2     0.707          2
##  9 A201008193774 공학         2     0.644          2
## 10 A201008199791 공학         2     0.432          2
## # ℹ 1,193 more rows
…
## # A tibble: 3 × 3
##   actual_label mapped_topic     n
##   <chr>               <dbl> <int>
## 1 공학                    2   373
## 2 의약학                  3   344
## 3 인문학                  1   358

# 3. 매핑 테이블을 원래 문서별 평가 데이터에 연결하기.
doc_eval_mapped <- doc_eval %>%
  left_join(label_topic_map, by = "actual_label") # 각 문서에 대해 실제 레이블에 대응되는 주제번호(mapped_topic)가 추가됨.
doc_eval_mapped

## # A tibble: 1,203 × 7
##    doc_id        actual_label topic  prob pred_topic mapped_topic     n
##    <chr>         <chr>        <chr> <dbl>      <dbl>        <dbl> <int>
##  1 A201008192866 공학         2     0.541          2            2   373
##  2 A201008192914 공학         2     0.698          2            2   373
##  3 A201008192630 공학         3     0.473          3            2   373
##  4 A201008183004 공학         2     0.655          2            2   373
##  5 A201008194895 공학         2     0.662          2            2   373
##  6 A201008193389 공학         2     0.606          2            2   373
##  7 A201008192227 공학         2     0.658          2            2   373
##  8 A201008191392 공학         2     0.707          2            2   373
##  9 A201008193774 공학         2     0.644          2            2   373
## 10 A201008199791 공학         2     0.432          2            2   373
## # ℹ 1,193 more rows
…
# 결과 확인하기.
document_tf_idf %>%
  arrange(doc_id, desc(tf_idf)) %>% # 문서별로 TF-IDF 값을 내림차순으로 나열하기.
  select(doc_id, word, tf_idf) # 문서, 중요 단어, TF-IDF 값 칼럼만 남기기.

## # A tibble: 12,425 × 3
##    doc_id        word         tf_idf
##    <chr>         <chr>         <dbl>
##  1 A201008176770 아시아       0.230 
##  2 A201008176770 서편제       0.205 
##  3 A201008176770 욕망         0.196 
##  4 A201008176770 임권택       0.146 
##  5 A201008176770 층위         0.145 
##  6 A201008176770 서구         0.126 
##  7 A201008176770 판소리       0.123 
##  8 A201008176770 진입         0.103 
##  9 A201008176770 오리엔탈리즘 0.0971
## 10 A201008176770 영화         0.0875
## # ℹ 12,415 more rows
…
# 결과 확인하기.
article_tf_idf %>%
  arrange(actual_label, desc(tf_idf)) %>% # 학문분야별로 TF-IDF 값을 내림차순으로 나열하기.
  select(actual_label, word, tf_idf) # 학문분야, 중요 단어, TF-IDF 값 칼럼만 남기기.

## # A tibble: 30 × 3
##    actual_label word       tf_idf
##    <chr>        <chr>       <dbl>
##  1 공학         콘크리트 0.00220 
##  2 공학         차량     0.00159 
##  3 공학         사용자   0.00119 
##  4 공학         보안     0.00100 
##  5 공학         취약점   0.000780
##  6 공학         균열     0.000751
##  7 공학         교량     0.000693
##  8 공학         시공     0.000693
##  9 공학         포렌식   0.000693
## 10 공학         패킷     0.000664
## # ℹ 20 more rows
…
# 4. tidy 형태로 변환하기.
dfm_tidy <- tidy(dfm_grouped) # 결과: document, term, count(여기서 count는 TF-IDF).

# 5. 학문분야별로 상위 20개 단어 추출하기.
top_terms_by_field <- dfm_tidy %>%
  rename(field = document, tfidf = count) %>%
  group_by(field) %>%
  slice_max(order_by = tfidf, n = 20, with_ties = FALSE) %>%
  ungroup()
top_terms_by_field

## # A tibble: 60 × 3
##    field term     tfidf
##    <chr> <chr>    <dbl>
##  1 공학  콘크리트  36.3
##  2 공학  차량      26.2
##  3 공학  사용자    19.7
##  4 공학  보안      16.6
##  5 공학  취약점    12.9
##  6 공학  균열      12.4
##  7 공학  교량      11.5
##  8 공학  시공      11.5
##  9 공학  포렌식    11.5
## 10 공학  패킷      11.0
## # ℹ 50 more rows
…
# 2. 문서별 주제 분포 행렬 추출하기.
gamma_matrix <- posterior(article_lda)$topics # 행 = 문서, 열 = 주제.

# 3. tidy 형태로 변환하기.
topic_distribution <- gamma_matrix %>%
  as_tibble() %>% # 행렬을 티블로 바꾸기.
  mutate(doc_id = article_filtered$doc_id) %>% # 원래 말뭉치의 문서 식별자 직접 삽입하기.
  pivot_longer(cols = -doc_id,             # doc_id 칼럼을 제외한 모든 칼럼의 제목에 대해서..
               names_to = "topic",         # topic 칼럼 밑에 행으로 넣어라!
               values_to = "gamma") %>%    # doc_id 칼럼을 제외한 모든 칼럼(`1`, `2`, `3`로 되어 있던 칼럼) 밑에 있던 값들은 gamma라는 새로운 칼럼을 만들어 그리로 넣어라!
  mutate(topic = parse_number(topic))      # topic 칼럼의 행을 숫자로 만들어라!
topic_distribution

## # A tibble: 3,600 × 3
##    doc_id        topic gamma
##    <chr>         <dbl> <dbl>
##  1 A201008192866     1 0.245
##  2 A201008192866     2 0.541
##  3 A201008192866     3 0.213
##  4 A201008192914     1 0.144
##  5 A201008192914     2 0.698
##  6 A201008192914     3 0.158
##  7 A201008192630     1 0.304
##  8 A201008192630     2 0.223
##  9 A201008192630     3 0.473
## 10 A201008183004     1 0.162
## # ℹ 3,590 more rows
…
